Calculate patient status at specific end of follow-up - tidyverse version — pat_status • msSPChelpR
…
#>  8 Dead             4  8822
#>  9 Dead            97     2
#> 10 Dead            98   182
#> 11 Dead            NA     5
#> # A tibble: 7 x 2
#>   p_status     n
#>      <dbl> <int>
#> 1        1 18428
#> 2        2 19756
#> 3        3 18358
#> 4        4  8822
#> 5       97    21
#> 6       98  2670
#> 7       NA     5
#> # A tibble: 68,060 x 121
#>    fake_id registry.1 sex.1 race.1 datebirth.1 t_datediag.1 t_site_icd.1 t_dco.1
#>    <chr>   <chr>      <chr> <chr>  <date>      <date>       <chr>        <chr>  
#>  1 100004  SEER Reg … Male  White  1926-01-01  1992-07-15   C50          histol…
#>  2 100034  SEER Reg … Male  White  1979-01-01  2000-06-15   C50          histol…
#>  3 100037  SEER Reg … Fema… White  1938-01-01  1996-01-15   C54          histol…
#>  4 100038  SEER Reg … Male  White  1989-01-01  1991-04-15   C50          histol…
#>  5 100039  SEER Reg … Fema… White  1946-01-01  2003-08-15   C50          histol…
#>  6 100047  SEER Reg … Fema… White  1927-01-01  1998-04-15   C50          histol…
#>  7 100057  SEER Reg … Male  Black  1961-01-01  2010-04-15   C18          histol…
#>  8 100060  SEER Reg … Fema… White  1947-01-01  2003-08-15   C50          histol…
#>  9 100063  SEER Reg … Fema… Black  1938-01-01  1995-12-15   C50          histol…
#> 10 100073  SEER Reg … Male  White  1960-01-01  1993-11-15   C44          histol…
#> # … with 68,050 more rows, and 113 more variables: fc_age.1 <int>,
#> #   datedeath.1 <date>, p_alive.1 <chr>, p_dodmin.1 <date>,
#> #   fc_agegroup.1 <chr>, t_yeardiag.1 <chr>, registry.2 <chr>, sex.2 <chr>,
#> #   race.2 <chr>, datebirth.2 <date>, t_datediag.2 <date>, t_site_icd.2 <chr>,
#> #   t_dco.2 <chr>, fc_age.2 <int>, datedeath.2 <date>, p_alive.2 <chr>,
#> #   p_dodmin.2 <date>, fc_agegroup.2 <chr>, t_yeardiag.2 <chr>,
#> #   registry.3 <chr>, sex.3 <chr>, race.3 <chr>, datebirth.3 <date>,
#> #   t_datediag.3 <date>, t_site_icd.3 <chr>, t_dco.3 <chr>, fc_age.3 <int>,
#> #   datedeath.3 <date>, p_alive.3 <chr>, p_dodmin.3 <date>,
…
