Determine vital status at end of follow-up depending on pat_status - tidytable version — vital_status_tt • msSPChelpR
…
                        status_var = "p_status",
                        life_var_new = "p_alive_new", 
                        check = TRUE, 
                        as_labelled_factor = FALSE)
#> # A tidytable: 7 × 3
#>   p_status p_alive_new     n
#>      <dbl>       <dbl> <int>
#> 1        1          10 18617
#> 2        2          10 19902
#> 3        3          11 18169
#> 4        4          11  8676
#> 5       97          97    21
#> 6       98          98  2670
#> 7       NA          NA     5
#> # A tidytable: 68,060 × 131
#>    fake_id registry.1 sex.1 race.1 datebirth.1 t_datediag.1 t_site_icd.1 t_dco.1
#>    <chr>   <chr>      <chr> <chr>  <date>      <date>       <chr>        <chr>  
#>  1 100004  SEER Reg … Male  White  1926-01-01  1992-07-15   C50          histol…
#>  2 100034  SEER Reg … Male  White  1979-01-01  2000-06-15   C50          histol…
#>  3 100037  SEER Reg … Fema… White  1938-01-01  1996-01-15   C54          histol…
#>  4 100038  SEER Reg … Male  White  1989-01-01  1991-04-15   C50          histol…
#>  5 100039  SEER Reg … Fema… White  1946-01-01  2003-08-15   C50          histol…
#>  6 100047  SEER Reg … Fema… White  1927-01-01  1998-04-15   C50          histol…
#>  7 100057  SEER Reg … Male  Black  1961-01-01  2010-04-15   C18          histol…
#>  8 100060  SEER Reg … Fema… White  1947-01-01  2003-08-15   C50          histol…
#>  9 100063  SEER Reg … Fema… Black  1938-01-01  1995-12-15   C50          histol…
#> 10 100073  SEER Reg … Male  White  1960-01-01  1993-11-15   C44          histol…
#> # ℹ 68,050 more rows
#> # ℹ 123 more variables: t_hist.1 <int>, fc_age.1 <int>, datedeath.1 <date>,
#> #   p_alive.1 <chr>, p_dodmin.1 <date>, fc_agegroup.1 <chr>,
#> #   t_yeardiag.1 <chr>, registry.2 <chr>, sex.2 <chr>, race.2 <chr>,
#> #   datebirth.2 <date>, t_datediag.2 <date>, t_site_icd.2 <chr>, t_dco.2 <chr>,
#> #   t_hist.2 <int>, fc_age.2 <int>, datedeath.2 <date>, p_alive.2 <chr>,
#> #   p_dodmin.2 <date>, fc_agegroup.2 <chr>, t_yeardiag.2 <chr>, …
…
