Introduction to the msSPChelpR package - from long dataset to SIR analyses • msSPChelpR
…
filtered_usdata <- us_second_cancer %>%
  #filter according to above detected ids with any lung cancer diagnosis
  filter(fake_id %in% ids) %>%
   arrange(fake_id)

filtered_usdata
#> # A tibble: 35,909 x 15
#>    fake_id SEQ_NUM registry sex   race  datebirth  t_datediag t_site_icd t_dco
#>    <chr>     <int>    <dbl> <chr> <chr> <date>     <date>     <chr>      <chr>
#>  1 100038        1     1525 Male  White 1966-01-01 1992-08-15 C73        DCO …
#>  2 100038        2     1525 Male  White 1966-01-01 2003-08-15 C34        hist…
#>  3 100039        1     1544 Fema… White 1889-01-01 1983-01-15 C34        hist…
#>  4 100039        2     1544 Fema… White 1889-01-01 1992-09-15 C21        hist…
#>  5 100039        3     1544 Fema… White 1889-01-01 2001-03-15 C34        hist…
#>  6 100057        1     1501 Male  Black 1972-01-01 1984-02-15 C34        hist…
#>  7 100103        1     1502 Fema… Other 1949-01-01 1973-11-15 C61        hist…
#>  8 100103        2     1502 Fema… Other 1949-01-01 1979-08-15 C67        hist…
#>  9 100103        3     1502 Fema… Other 1949-01-01 1987-12-15 C34        hist…
#> 10 100147        1     1547 Male  White 1876-01-01 1972-12-15 C34        hist…
#> # … with 35,899 more rows, and 6 more variables: fc_age <int>,
#> #   datedeath <date>, p_alive <chr>, p_dodmin <date>, fc_agegroup <chr>,
#> #   t_yeardiag <chr>

Step 3 - Renumber time_id

renumbered_usdata <- filtered_usdata %>%
  msSPChelpR::renumber_time_id(new_time_id_var = "t_tumid",
                                  dattype = "seer",
                                  case_id_var = "fake_id")

renumbered_usdata %>%
   select(fake_id, sex, t_site_icd, t_datediag, t_tumid)
#> # A tibble: 35,909 x 5
#>    fake_id sex    t_site_icd t_datediag t_tumid
#>    <chr>   <chr>  <chr>      <date>       <int>
#>  1 100038  Male   C73        1992-08-15       1
#>  2 100038  Male   C34        2003-08-15       2
#>  3 100039  Female C34        1983-01-15       1
#>  4 100039  Female C21        1992-09-15       2
#>  5 100039  Female C34        2001-03-15       3
#>  6 100057  Male   C34        1984-02-15       1
#>  7 100103  Female C61        1973-11-15       1
#>  8 100103  Female C67        1979-08-15       2
#>  9 100103  Female C34        1987-12-15       3
#> 10 100147  Male   C34        1972-12-15       1
#> # … with 35,899 more rows

Step 4 - Reshape to wide dataset

usdata_wide <- renumbered_usdata %>%
  msSPChelpR::reshape_wide_tidyr(case_id_var = "fake_id", time_id_var = "t_tumid", timevar_max = 10)

usdata_wide
#> # A tibble: 17,525 x 127
#>    fake_id SEQ_NUM.1 SEQ_NUM.2 SEQ_NUM.3 SEQ_NUM.4 SEQ_NUM.5 SEQ_NUM.6 SEQ_NUM.7
#>    <chr>       <int>     <int>     <int>     <int>     <int>     <int>     <int>
#>  1 100038          1         2        NA        NA        NA        NA        NA
#>  2 100039          1         2         3        NA        NA        NA        NA
#>  3 100057          1        NA        NA        NA        NA        NA        NA
#>  4 100103          1         2         3        NA        NA        NA        NA
#>  5 100147          1         2         3        NA        NA        NA        NA
#>  6 100175          1         2        NA        NA        NA        NA        NA
#>  7 100182          1         2         3        NA        NA        NA        NA
#>  8 100187          1         2        NA        NA        NA        NA        NA
#>  9 100197          1         2        NA        NA        NA        NA        NA
#> 10 100208          1        NA        NA        NA        NA        NA        NA
#> # … with 17,515 more rows, and 119 more variables: SEQ_NUM.8 <int>,
#> #   SEQ_NUM.9 <int>, registry.1 <dbl>, registry.2 <dbl>, registry.3 <dbl>,
#> #   registry.4 <dbl>, registry.5 <dbl>, registry.6 <dbl>, registry.7 <dbl>,
#> #   registry.8 <dbl>, registry.9 <dbl>, sex.1 <chr>, sex.2 <chr>, sex.3 <chr>,
#> #   sex.4 <chr>, sex.5 <chr>, sex.6 <chr>, sex.7 <chr>, sex.8 <chr>,
#> #   sex.9 <chr>, race.1 <chr>, race.2 <chr>, race.3 <chr>, race.4 <chr>,
#> #   race.5 <chr>, race.6 <chr>, race.7 <chr>, race.8 <chr>, race.9 <chr>,
#> #   datebirth.1 <date>, datebirth.2 <date>, datebirth.3 <date>,
#> #   datebirth.4 <date>, datebirth.5 <date>, datebirth.6 <date>,
…
Step 5 - Recalculate p_spc

usdata_wide <- usdata_wide %>%
  dplyr::mutate(p_spc = case_when(is.na(t_site_icd.2)   ~ "no SPC",
                         !is.na(t_site_icd.2)           ~ "SPC developed",
                         TRUE ~ NA_character_))
usdata_wide %>%
   select(fake_id, sex.1, p_spc, t_site_icd.1, t_datediag.1, t_site_icd.2, t_datediag.2)
#> # A tibble: 17,525 x 7
#>    fake_id sex.1  p_spc      t_site_icd.1 t_datediag.1 t_site_icd.2 t_datediag.2
#>    <chr>   <chr>  <chr>      <chr>        <date>       <chr>        <date>      
#>  1 100038  Male   SPC devel… C73          1992-08-15   C34          2003-08-15  
#>  2 100039  Female SPC devel… C34          1983-01-15   C21          1992-09-15  
#>  3 100057  Male   no SPC     C34          1984-02-15   <NA>         NA          
#>  4 100103  Female SPC devel… C61          1973-11-15   C67          1979-08-15  
#>  5 100147  Male   SPC devel… C34          1972-12-15   C16          2005-11-15  
#>  6 100175  Male   SPC devel… C50          1980-03-15   C34          1997-01-15  
#>  7 100182  Male   SPC devel… C34          1978-07-15   C61          1985-08-15  
#>  8 100187  Female SPC devel… C44          1976-11-15   C34          1995-01-15  
#>  9 100197  Female SPC devel… C34          1984-06-15   C50          2008-11-15  
#> 10 100208  Male   no SPC     C34          2001-12-15   <NA>         NA          
#> # … with 17,515 more rows
…
